<svg id="shield-keyhole-line" xmlns="http://www.w3.org/2000/svg" width="18.039" height="18.039" viewBox="0 0 18.039 18.039">
  <path id="Path_6361" data-name="Path 6361" d="M0,0H18.039V18.039H0Z" fill="none"/>
  <path id="Path_6362" data-name="Path 6362" d="M9.764,1,15.94,2.372a.752.752,0,0,1,.589.734v7.506a4.51,4.51,0,0,1-2.008,3.752L9.764,17.535,5.008,14.364A4.51,4.51,0,0,1,3,10.613V3.106a.752.752,0,0,1,.588-.734Zm0,1.54L4.5,3.709v6.9a3.006,3.006,0,0,0,1.339,2.5l3.923,2.616,3.923-2.616a3.006,3.006,0,0,0,1.339-2.5v-6.9L9.764,2.541Zm0,2.97a1.5,1.5,0,0,1,.752,2.8v3.208h-1.5V8.315a1.5,1.5,0,0,1,.752-2.8Z" transform="translate(-0.745 -0.248)" fill="#0031ff"/>
</svg>
